…
To answer our question, we can look at the average mental health of
groups of people who get different hours of sleep.

    slep_ment <- rq2_brfss2013 %>%
     group_by(hours_slept = as.factor(sleptim1)) %>%
     summarise(avg_poor_mental = mean(menthlth), count=n()) 

    slep_ment

    ## # A tibble: 24 × 3
    ##    hours_slept avg_poor_mental  count
    ##         <fctr>           <dbl>  <int>
    ## 1            1       11.651376    218
    ## 2            2       13.286550   1026
    ## 3            3       12.265064   3369
    ## 4            4        9.772228  13834
    ## 5            5        6.280284  32699
    ## 6            6        3.933364 104493
    ## 7            7        2.206032 140794
    ## 8            8        2.217405 138934
    ## 9            9        2.739771  23414
    ## 10          10        4.686248  11831
    ## # ... with 14 more rows
…
